﻿# See the documentation on the wiki to learn how to edit this file.
#-------------------------------
[002] # Lappet Town
Water,2
    60,TENTACOOL,14,19
    30,MANTYKE,15,16
    10,REMORAID,14,16
OldRod
    100,MAGIKARP,16,19
GoodRod
    60,BARBOACH,17,18
    20,KRABBY,15,16
    20,SHELLDER,16,19
SuperRod
    40,CHINCHOU,17,19
    40,QWILFISH,16,19
    15,CORSOLA,15,18
    5,STARYU,15,17
#-------------------------------
[005] # Route 1
Land,21
    40,PIDGEY,11,14
    40,RATTATA,11,14
    9,PIDGEY,11,13
    9,RATTATA,11,13
    1,PIDGEY,14
    1,RATTATA,14
LandNight,21
    39,RATTATA,10,14
    30,HOOTHOOT,10,13
    20,SPINARAK,8,12
    9,HOOTHOOT,10,14
    1,HOOTHOOT,14
    1,RATTATA,15
#-------------------------------
[005,1] # Route 1
Land,21
    40,PIDGEY,15,18
    40,RATTATA,14,18
    10,SENTRET,13,17
    5,PIDGEY,14,16
    5,RATTATA,13,16
LandNight,21
    40,RATTATA,14,18
    30,HOOTHOOT,14,17
    20,SPINARAK,12,16
    10,CLEFAIRY,11,15
#-------------------------------
[021] # Route 2
Land,21
    50,RATTATA,12,15
    30,POOCHYENA,11,15
    10,SHINX,10,12
    10,SHINX,10,11
Water,2
    60,MAGIKARP,7,10
    30,GOLDEEN,11,14
    10,STARYU,12,15
OldRod
    70,MAGIKARP,7,10
    30,MAGIKARP,9,15
GoodRod
    60,GOLDEEN,12,14
    20,FINNEON,12,15
    20,MAGIKARP,12,17
SuperRod
    40,FINNEON,12,15
    40,GOLDEEN,12,14
    15,STARYU,12,15
    5,STARYU,14,17
HeadbuttLow
    50,PINECO,11,13
    30,LEDYBA,6,8
    19,SPINARAK,9,12
    1,MUNCHLAX,11,14
HeadbuttHigh
    50,PINECO,11,13
    30,WURMPLE,6,8
    20,SPINARAK,9,12
#-------------------------------
[028] # Natural Park
Land,21
    20,CATERPIE,10
    20,SUNKERN,12
    20,WEEDLE,10
    15,PIDGEY,10,14
    15,PIDGEY,12,14
    5,KAKUNA,10
    5,METAPOD,10
LandNight,21
    30,HOOTHOOT,10,14
    30,SPINARAK,10,15
    20,PINECO,9,13
    10,DROWZEE,9,15
    10,NATU,12,14
LandMorning,21
    25,CATERPIE,10,12
    25,WEEDLE,10,12
    20,PIDGEY,10,14
    15,KAKUNA,10
    15,METAPOD,10
BugContest,21
    20,CATERPIE,7,18
    20,WEEDLE,7,18
    10,KAKUNA,9,18
    10,METAPOD,9,18
    10,PARAS,10,17
    10,VENONAT,10,16
    5,BEEDRILL,12,15
    5,BUTTERFREE,12,15
    5,PINSIR,13,14
    5,SCYTHER,13,14
#-------------------------------
[031] # Route 3
Land,21
    30,NIDORANfE,12,15
    30,NIDORANmA,12,15
    20,PIKACHU,14,17
    10,EEVEE,15
    10,PONYTA,13,15
Water,2
    60,SURSKIT,13,14
    35,LOTAD,14
    5,LOTAD,15
OldRod
    70,MAGIKARP,6,11
    30,MAGIKARP,10,17
GoodRod
    60,POLIWAG,12,15
    20,PSYDUCK,11,14
    20,WOOPER,13,17
SuperRod
    40,CHINCHOU,11,12
    40,REMORAID,12,14
    20,LUVDISC,10,16
RockSmash,50
    60,NOSEPASS,13,14
    40,GEODUDE,12,15
HeadbuttLow
    30,PINECO,14,17
    25,COMBEE,15,17
    20,PINECO,14,16
    10,HERACROSS,16,18
    9,HERACROSS,16,17
    5,COMBEE,15,16
    1,MUNCHLAX,13,18
HeadbuttHigh
    50,SEEDOT,14,17
    30,SHROOMISH,14,17
    20,BURMY,12,15
#-------------------------------
[034] # Ice Cave
Cave,5
    40,SWINUB,16,18
    20,SNEASEL,14,16
    20,SNORUNT,12,15
    10,SMOOCHUM,11,14
    10,SNOVER,14
#-------------------------------
[039] # Route 4
Land,21
    50,SHELLOS_1,12,15
    40,GRIMER,13,15
    10,MURKROW,12,14
#-------------------------------
[041] # Route 5
Land,21
    50,GRIMER,13,15
    40,SPEAROW,13,16
    10,SLUGMA,13,14
#-------------------------------
[044] # Route 6
Land,21
    50,SHELLOS_1,12,15
    40,GRIMER,13,15
    10,MURKROW,12,14
#-------------------------------
[047] # Route 7
Land,21
    50,SHELLOS,12,15
    30,BIDOOF,14,17
    10,MURKROW,12,14
    10,WURMPLE,9,12
RockSmash,50
    90,NOSEPASS,13,14
    10,GEODUDE,12,15
#-------------------------------
[049] # Rock Cave
Cave,5
    20,MAGNETON,14,16
    20,MAGNETON,14,17
    20,NOSEPASS,14,15
    20,NOSEPASS,13,14
    10,GEODUDE,13,15
    10,MAWILE,14,16
#-------------------------------
[050] # Rock Cave
Cave,5
    20,MAGNETON,14,16
    20,MAGNETON,14,17
    20,NOSEPASS,14,15
    20,NOSEPASS,13,14
    10,BURMY,14,16
    10,GEODUDE,13,15
#-------------------------------
[051] # Dungeon
Cave,5
    20,CHINGLING,1
    20,CLEFFA,1
    20,IGGLYBUFF,1
    20,PICHU,1
    10,RIOLU,1
    10,TYROGUE,1
#-------------------------------
[066] # Safari Zone
Land,21
    20,ABRA,12,15
    20,DODUO,13,15
    20,NIDORANfE,15,16
    20,NIDORANmA,15,16
    10,HOPPIP,13,17
    10,TANGELA,14,16
#-------------------------------
[068] # Safari Zone
Land,21
    20,EXEGGCUTE,15,18
    20,RHYHORN,16,18
    10,AIPOM,14,17
    10,GIRAFARIG,16,17
    10,VENONAT,15,17
    10,VENONAT,15,18
    5,HERACROSS,15,17
    5,TAUROS,15,16
    4,PINSIR,16
    4,SCYTHER,16
    1,CHANSEY,17
    1,KANGASKHAN,19
Water,2
    60,PSYDUCK,16,18
    30,MARILL,15,18
    5,BUIZEL,15,17
    5,SLOWPOKE,14,16
OldRod
    70,MAGIKARP,17,21
    30,MAGIKARP,17,20
GoodRod
    60,MAGIKARP,16,20
    20,FEEBAS,16,20
    20,POLIWAG,17,18
SuperRod
    40,GOLDEEN,16,18
    40,REMORAID,17,19
    15,CARVANHA,16,17
    4,FINNEON,15,18
    1,DRATINI,17
#-------------------------------
[069] # Route 8
Land,21
    20,MAREEP,16,18
    20,ODDISH,15,17
    13,BONSLY,14,16
    10,DITTO,15,17
    10,DITTO,16,18
    10,LOTAD,15,18
    10,LOTAD,15,17
    5,BONSLY,14,17
    1,BONSLY,15,16
    1,BONSLY,15
Water,2
    60,TENTACOOL,14,19
    30,MANTYKE,15,16
    10,REMORAID,14,16
OldRod
    100,MAGIKARP,16,19
GoodRod
    60,BARBOACH,17,18
    20,KRABBY,15,16
    20,SHELLDER,16,19
SuperRod
    40,CHINCHOU,17,19
    40,QWILFISH,16,19
    15,CORSOLA,15,18
    5,STARYU,15,17
#-------------------------------
[070] # Underwater
Land,21
    20,CHINCHOU,17,21
    20,CLAMPERL,18,20
    20,SHELLDER,18,20
    10,CLAMPERL,18,19
    10,CORSOLA,17,20
    10,RELICANTH,16,19
    10,SHELLDER,18,19
#-------------------------------
[075] # Tiall Region
Land,21
    20,GEODUDE_1,11,14
    20,RATTATA_1,11,14
    10,CUBONE,11,14
    10,DIGLETT_1,11,14
    10,MEOWTH_1,11,14
    10,PIKACHU,11,14
    10,SANDSHREW_1,11,14
    10,VULPIX_1,11,14
#-------------------------------
[022] # Flora Town
Land,21
20,DEERLING,2,3
20,WOOLOO,1,3
15,APPLIN,2,3
13,PIDGEY,2
10,DEERLING,4
10,METAPOD,3
10,WOOLOO,3,4
1,HATENNA,2,3
1,MILTANK,4
LandNight,21
20,DEERLING,2,3
20,WOOLOO,1,3
15,VENONAT,2,3
13,HOOTHOOT,2
10,DEERLING,4
10,VENONAT,3
10,WOOLOO,3,4
1,HATENNA,2,3
1,MILTANK,4
Water,2
    60,GOLDEEN,14,19
    40,MAGIKARP,15,16
OldRod
    100,MAGIKARP,7,10
GoodRod
    60,GOLDEEN,17,18
    20,FINNEON,15,16
    20,TYNAMO,16,19
SuperRod
    40,GOLDEEN,17,19
    40,FINNEON,16,19
    15,SEAKING,15,18
    5,TYNAMO,15,17
#-------------------------------
[042] # Tamarach Forest
Land,21
    20,CATERPIE,2,4
    20,WEEDLE,2,3
    15,CATERPIE,2,4
    13,PIDGEY,3,4
    10,KAKUNA,4
    10,METAPOD,3,4
    10,PIKACHU,3,5
    1,BUTTERFREE,4,5
    1,PICHU,5
LandNight,21
    20,SPINARAK,3,4
    20,WEEDLE,2,4
    15,VENONAT,3,5
    13,HOOTHOOT,3
    10,RATTATA,5
    10,VENONAT,4
    10,ODDISH,4,5
    1,PINECO,4,5
    1,ARIADOS,6
Water,2
        60,LOTAD,14,19
        40,DEWPIDER,15,16
OldRod
        100,MAGIKARP,7,10
GoodRod
        60,GOLDEEN,17,18
        20,SEAKING,15,16
        20,WOOPER,16,19
    SuperRod
        40,GOLDEEN,17,19
        40,WOOPER,16,19
        15,WOOPER,15,18
        5,GYARADOS,15,17
#-------------------------------
[043] # Carryport Town
        Land,21
            20,GRIMER,5,6
            20,ELECTRIKE,4,6
            15,SHINX,4
            13,SHINX,6
            10,MAGNEMITE,5
            10,LOTAD,5
            10,PSYDUCK,3,5
            1,FLETCHLING,5
            1,ELEKID,5,6
        LandNight,21
            20,PSYDUCK,6,7
            20,HOOTHOOT,5,7
            15,VENONAT,5,7
            13,HOOTHOOT,3
            10,FLETCHLING,5
            10,VENONAT,4
            10,VENONAT,4,7
            1,ELECTRIKE,6,7
            1,MUK,8
#-------------------------------
[087] # Shellside Town
Land,21
                20,PIKACHU,8
                20,GEODUDE,8,9
                15,WHISMUR,8
                13,SANDYGAST,9
                10,SHELLDER,9
                10,ODDISH,10
                10,SUNKERN,3,5
                1,WHISMUR,8
                1,CLOYSTER,11

OldRod
                    100,MAGIKARP,7,10
GoodRod
                    60,GOLDEEN,17,18
                    20,FINNEON,15,16
                    20,WOOPER,16,19
SuperRod
                    40,GOLDEEN,17,19
                    40,WOOPER,16,19
                    15,WOOPER,15,18
                    5,GYARADOS,15,17
#-------------------------------
[110] # Cave Cloch GF
Cave,5
                        20,CHEWTLE,8
                        20,GEODUDE,8,9
                        20,ROGGENROLA,12,15
                        20,NOSEPASS,10
                        10,ARON,10
                        10,ROLYCOLY,11
#-------------------------------
[111] # Cave Cloch -1F
Cave,5
                                                20,CHEWTLE,8
                                                20,ZUBAT,8,9
                                                20,ROGGENROLA,12,15
                                                20,NOSEPASS,10
                                                10,ARON,10
                                                10,ONIX,11
#-------------------------------
[120] # Haunted Apartment
  Cave,5
  20,GASTLY,10,12
  20,SHUPPET,10,11
  20,DUSKULL,10,11
  20,GASTLY,10
  10,SABLEYE,10
  10,HAUNTER,14
#-------------------------------
[109] # Route 1
Land,21
    20,DUCKLETT,12,13
    20,SWABLU,12,13
    15,ROSELIA,11,13
    13,BUDEW,14
    10,ZANGOOSE,13
    10,SWABLU,12
    10,DUCKLETT,12,13
    1,AUDINO,13
    1,GOOMY,14
LandNight,21
20,DUCKLETT,12,13
20,SWABLU,12,13
15,ROSELIA,11,13
13,BUDEW,14
10,SEVIPER,13
10,SWABLU,12
10,DUCKLETT,12,13
1,AUDINO,13
1,GOOMY,14
Water,2
        60,TYMPOLE,14,19
        40,SWANNA,15,16
OldRod
        100,MAGIKARP,7,10
GoodRod
        60,GOLDEEN,17,18
        20,ARROKUDA,15,16
        20,WOOPER,16,19
    SuperRod
        40,GOLDEEN,17,19
        40,FINNEON,16,19
        15,WOOPER,15,18
        5,BARRASKEWDA,15,17
#-------------------------------
[119] # Route 1
Land,21
    20,DUCKLETT,12,13
    20,SWABLU,12,13
    15,ROSELIA,11,13
    13,BUDEW,14
    10,ZANGOOSE,13
    10,SWABLU,12
    10,DUCKLETT,12,13
    1,AUDINO,13
    1,GOOMY,14
LandNight,21
20,DUCKLETT,12,13
20,SWABLU,12,13
15,ROSELIA,11,13
13,BUDEW,14
10,SEVIPER,13
10,SWABLU,12
10,DUCKLETT,12,13
1,AUDINO,13
1,GOOMY,14
Water,2
        60,TYMPOLE,14,19
        40,SWANNA,15,16
OldRod
        100,MAGIKARP,7,10
GoodRod
        60,GOLDEEN,17,18
        20,ARROKUDA,15,16
        20,WOOPER,16,19
    SuperRod
        40,GOLDEEN,17,19
        40,FINNEON,16,19
        15,WOOPER,15,18
        5,BARRASKEWDA,15,17
#-------------------------------
[135] # Marmair Cave
Cave,5
20,MACHOP,18
20,WOOBAT,18,19
20,CRANIDOS,18
20,DRUDDIGON,20
10,BAGON,20
10,RIOLU,21
#-------------------------------
[145] # Marmair Cave -2F
Cave,5
20,TORKOAL,18,20
20,MAGMAR,18,19
20,CARKOL,18,20
20,SLUGMA,18,20
10,BAGON,18,20
10,MAGBY,18,21
#-------------------------------
